Lab 6
…
# Q6:
data %>%
  unnest_tokens(token, transcription, token = "words") %>%
  anti_join(stop_words, by = c("token" = "word")) %>%
  group_by(medical_specialty) %>%
  count(token, sort = TRUE) %>%
  top_n(1,n) 

# A tibble: 41 × 3
# Groups:   medical_specialty [40]
   medical_specialty             token       n
   <chr>                         <chr>   <int>
 1 " Surgery"                    patient  4855
 2 " Consult - History and Phy." patient  3046
 3 " Orthopedic"                 patient  1711
 4 " Cardiovascular / Pulmonary" left     1550
 5 " General Medicine"           patient  1356
 6 " Gastroenterology"           patient   872
 7 " Urology"                    patient   776
 8 " Radiology"                  left      701
 9 " Emergency Room Reports"     patient   685
10 " Discharge Summary"          patient   672
# ℹ 31 more rows

data %>%
  unnest_tokens(token, transcription, token = "words") %>%
  anti_join(stop_words, by = c("token" = "word")) %>%
  group_by(medical_specialty) %>%
  count(token, sort = TRUE) %>%
  top_n(5,n)

# A tibble: 209 × 3
# Groups:   medical_specialty [40]
   medical_specialty             token         n
   <chr>                         <chr>     <int>
 1 " Surgery"                    patient    4855
 2 " Surgery"                    left       3263
 3 " Surgery"                    procedure  3243
 4 " Consult - History and Phy." patient    3046
 5 " Consult - History and Phy." history    2820
 6 " Surgery"                    0          2094
 7 " Surgery"                    1          2038
 8 " Orthopedic"                 patient    1711
 9 " Cardiovascular / Pulmonary" left       1550
10 " Cardiovascular / Pulmonary" patient    1516
# ℹ 199 more rows
…
